{
    "id": "ChangeParamActivity",
    "commandLine": [
        "$(engine.path)\\InventorCoreConsole.exe /i $(args[InventorDoc].path) /al $(appbundles[paramChangeBundle].path) $(args[InventorParams].path)"
    ],
    "parameters": {
      "InventorDoc": {
        "zip": false,
        "ondemand": false,
        "verb": "get",
        "description": "Input Inventor part file",
        "localName": "Input.ipt"
      },
       "InventorParams": {
       	"zip": false,
       	"ondemand": false,
       	"verb": "get",
       	"description" : "JSON object containing new width and height parameters",
        "localName": "params.json"
      },
      "OutputIpt": {
        "zip": false,
        "ondemand": false,
        "optional": true,
        "localName": "ResultSmall.ipt",
        "verb": "post"
      },
      "OutputIam": {
        "zip": true,
        "ondemand": false,
        "optional": true,
        "localName": "ResultSmall.zip",
        "verb": "post"
      },
      "OutputBmp": {
        "zip": false,
        "ondemand": false,
        "optional": true,
        "localName": "ResultSmall.bmp",
        "verb": "post"
      }
    },
    "engine": "Autodesk.Inventor+24",
    "appbundles": [
        "windowgen.paramChangeBundle+current_version"
    ],
    "settings": {},
    "description": "Resizes an Inventor part or assembly to the height and width parameters contained in the JSON object specified by the InventorParams parameter. Also produces a BMP file of the result."
}